\relax 
\providecommand\hyper@newdestlabel[2]{}
\providecommand\HyperFirstAtBeginDocument{\AtBeginDocument}
\HyperFirstAtBeginDocument{\ifx\hyper@anchor\@undefined
\global\let\oldcontentsline\contentsline
\gdef\contentsline#1#2#3#4{\oldcontentsline{#1}{#2}{#3}}
\global\let\oldnewlabel\newlabel
\gdef\newlabel#1#2{\newlabelxx{#1}#2}
\gdef\newlabelxx#1#2#3#4#5#6{\oldnewlabel{#1}{{#2}{#3}}}
\AtEndDocument{\ifx\hyper@anchor\@undefined
\let\contentsline\oldcontentsline
\let\newlabel\oldnewlabel
\fi}
\fi}
\global\let\hyper@last\relax 
\gdef\HyperFirstAtBeginDocument#1{#1}
\providecommand\HyField@AuxAddToFields[1]{}
\providecommand\HyField@AuxAddToCoFields[2]{}
\citation{Rother2013}
\citation{Rother2013}
\@writefile{toc}{\contentsline {section}{\tocsection {}{1}{Introduction and Summary}}{2}{section.1}}
\@writefile{toc}{\contentsline {section}{\tocsection {}{2}{Procedure}}{2}{section.2}}
\@writefile{toc}{\contentsline {subsection}{\tocsubsection {}{2.1}{Create a reaction list}}{2}{subsection.2.1}}
\@writefile{toc}{\contentsline {subsection}{\tocsubsection {}{2.2}{Identify overlapping reactions}}{2}{subsection.2.2}}
\@writefile{toc}{\contentsline {subsection}{\tocsubsection {}{2.3}{Identify existing states and reaction edges for each species}}{2}{subsection.2.3}}
\newlabel{specieslist}{{2.2}{3}{Identify overlapping reactions}{subsection.2.2}{}}
\@writefile{lot}{\contentsline {table}{\numberline {1}{\ignorespaces Species list. All species and their reactions are listed. Reactions that have one species in common can be considered as 'overlapping'. Species, that participate in only one reaction are omitted.}}{3}{table.1}}
\newlabel{abbrevR}{{2.3}{4}{Identify existing states and reaction edges for each species}{subsection.2.3}{}}
\@writefile{lot}{\contentsline {table}{\numberline {2}{\ignorespaces Abbreviations for reactions of species R.}}{4}{table.2}}
\newlabel{abbrevC6}{{2.3}{5}{Identify existing states and reaction edges for each species}{table.2}{}}
\@writefile{lot}{\contentsline {table}{\numberline {3}{\ignorespaces Abbrev. and input for reactions of species C6.}}{5}{table.3}}
\newlabel{abbrevC3}{{2.3}{5}{Identify existing states and reaction edges for each species}{table.3}{}}
\@writefile{lot}{\contentsline {table}{\numberline {4}{\ignorespaces Abbrev. for reactions of species C3.}}{5}{table.4}}
\newlabel{abbrevBID}{{2.3}{5}{Identify existing states and reaction edges for each species}{table.4}{}}
\@writefile{lot}{\contentsline {table}{\numberline {5}{\ignorespaces Abbrev. for reactions of species BID.}}{5}{table.5}}
\newlabel{abbrevC9}{{2.3}{6}{Identify existing states and reaction edges for each species}{table.5}{}}
\@writefile{lot}{\contentsline {table}{\numberline {6}{\ignorespaces Abbrev. for reactions of species C9.}}{6}{table.6}}
\newlabel{abbrevXIAP}{{2.3}{6}{Identify existing states and reaction edges for each species}{table.6}{}}
\@writefile{lot}{\contentsline {table}{\numberline {7}{\ignorespaces Abbrev. for reactions of species XIAP.}}{6}{table.7}}
\newlabel{abbrevCytoc}{{2.3}{6}{Identify existing states and reaction edges for each species}{table.7}{}}
\@writefile{lot}{\contentsline {table}{\numberline {8}{\ignorespaces Abbrev. for reactions of species Cytoc.}}{6}{table.8}}
\newlabel{abbrevSMAC}{{2.3}{6}{Identify existing states and reaction edges for each species}{table.8}{}}
\@writefile{lot}{\contentsline {table}{\numberline {9}{\ignorespaces Abbrev. for reactions of species SMAC.}}{6}{table.9}}
\bibcite{Rother2013}{1}
\newlabel{abbrevAPAF}{{2.3}{7}{Identify existing states and reaction edges for each species}{table.9}{}}
\@writefile{lot}{\contentsline {table}{\numberline {10}{\ignorespaces Abbrev. for reactions of species APAF.}}{7}{table.10}}
\@writefile{toc}{\contentsline {subsection}{\tocsubsection {}{2.4}{Semi-Automatic Contingencies Identification}}{7}{subsection.2.4}}
\@writefile{toc}{\contentsline {subsection}{\tocsubsection {}{2.5}{Final Model Creation}}{7}{subsection.2.5}}
\@writefile{toc}{\contentsline {section}{\tocsection {}{3}{Outlook}}{7}{section.3}}
\newlabel{tocindent-1}{0pt}
\newlabel{tocindent0}{12.7778pt}
\newlabel{tocindent1}{17.77782pt}
\newlabel{tocindent2}{25.55562pt}
\newlabel{tocindent3}{0pt}
\newlabel{complete_contingencies}{{2.5}{8}{Final Model Creation}{subsection.2.5}{}}
\@writefile{lof}{\contentsline {figure}{\numberline {1}{\ignorespaces Merged and re-translated contingencies for the apoptose model: All contingencies for which the considered species serve as modifiers, i.e. species 1), 3) - 7) and 9) - 11). Missing species are BAX and C3.}}{8}{figure.1}}
\@writefile{toc}{\contentsline {section}{\tocsection {}{}{References}}{8}{section*.2}}
\lastpage{8}
