\contentsline {section}{\tocsection {}{1}{Introduction and Summary}}{2}{section.1}
\contentsline {section}{\tocsection {}{2}{Procedure}}{2}{section.2}
\contentsline {subsection}{\tocsubsection {}{2.1}{Create a reaction list}}{2}{subsection.2.1}
\contentsline {subsection}{\tocsubsection {}{2.2}{Identify overlapping reactions}}{2}{subsection.2.2}
\contentsline {subsection}{\tocsubsection {}{2.3}{Identify existing states and reaction edges for each species}}{2}{subsection.2.3}
\contentsline {subsection}{\tocsubsection {}{2.4}{Semi-Automatic Contingencies Identification}}{7}{subsection.2.4}
\contentsline {subsection}{\tocsubsection {}{2.5}{Final Model Creation}}{7}{subsection.2.5}
\contentsline {section}{\tocsection {}{3}{Outlook}}{7}{section.3}
\contentsline {section}{\tocsection {}{}{References}}{8}{section*.2}
